,,,
Gráfico Nº 5: Desembarques totales del puerto de Mar del Plata. Evolución. Años 2018 - 2022. (t),,,
,,,
Años,Mar del Plata,Captura Provincial ,Captura País
2018,"346.464,67","365.994,17","784.951,81"
2019,"361.242,35","384.466,35","775.177,77"
2020,"404.523,76","432.521,6","789.745,51"
2021,"358.261,11","389.609,86","796.813,09"
2022,"381.874,76","408076,37","790421,004"
