DESEMBARQUES DE CAPTURAS MARITIMAS TOTALES - Por puerto y mes (t),,,,,,,,,,,,,
Periodo: 01/01/2011-31/12/2011,,,,,,,,,,,,,
Puerto,Enero,Febrero,Marzo,Abril,Mayo,Junio,Julio,Agosto,Septiembre,Octubre,Noviembre,Diciembre,Total
BUENOS AIRES,,,,,,,,,,,,,
BAHIA BLANCA,"20,7","18,4","43,2","372,6",132,"109,2","195,7","18,1",38,"4,4","1794,8","3,7","2750,8"
BUENOS AIRES, , , , , , ,"33,9","0,3", , ,"143,6", ,"177,9"
GRAL.LAVALLE,"3,6","81,5","94,2","65,5","67,4","169,4","312,8","604,5","273,6","43,2",5, ,"1720,5"
MAR DEL PLATA,"17211,1","38876,4","37691,6","35113,9","28540,3","33989,8","31521,7","40298,8","38786,4",39334,"36322,3","24301,4","401987,7"
NECOCHEA/QUEQUEN,"452,9","328,1","367,2","912,8","495,2","357,4","264,2",185,"229,7","305,2",526,"178,7","4602,3"
ROSALES,"8,4","8,4","9,3","26,1","19,8","4,4", , , , , , ,"76,4"
SAN CLEMENTE DEL TUY, , , , ,"1,3","2,9", ,"4,8","8,6", , , ,"17,6"
OTROS PUERTOS, , ,"16,2", ,"1,2","272,1",756,"424,3","109,6","19,5","9,5", ,"1608,3"
SUBTOTAL,"17.696,70","39.312,80","38.221,70","36.490,90","29.257,20","34.905,20","33.084,30","41.535,80","39.445,90","39.706,30","38.801,20","24.483,80","412.941,50"
RIO NEGRO,,,,,,,,,,,,,
SAN ANTONIO ESTE,"203,4",1206,"1201,9","1617,5","1026,6","1365,7","742,6","1078,5","1434,9","885,8","1009,6","846,7","12619,1"
SAN ANTONIO OESTE,"355,4","480,6","574,2","448,7","173,9","232,2", ,"302,9","703,9","221,6","16,3", ,"3509,7"
SUBTOTAL,"558,80","1.686,60","1.776,10","2.066,20","1.200,50","1.597,90","742,60","1.381,40","2.138,80","1.107,40","1.025,90","846,70","16.128,80"
CHUBUT,,,,,,,,,,,,,
CALETA CORDOVA,"0,2", , ,"79,4","8,7","35,4", , , , , , ,"123,7"
CAMARONES, ,"341,4","297,7","48,8","19,5","244,4","93,8","146,4","59,9", ,"30,8", ,"1282,7"
COMODORO RIVADAVIA,"358,5","265,8","816,3","1184,9","2092,1","1753,9","2484,2","2024,4","2162,5",1228,"696,4","918,1","15985,2"
MADRYN,"2023,9","9608,1","14852,1","10557,3","10031,6",13351,"9575,5",12802,"11210,7","11797,5","6622,5","8319,1","120751,2"
RAWSON,"6101,6",2149,"1486,2","692,5","530,9",74,413,"1232,5","817,9","1573,3","4655,7","3426,1","23152,6"
SUBTOTAL,"8.484,20","12.364,30","17.452,30","12.562,90","12.682,80","15.458,70","12.566,50","16.205,30","14.251,00","14.598,80","12.005,40","12.663,30","161.295,40"
SANTA CRUZ,,,,,,,,,,,,,
CALETA OLIVIA/PAULA,"33,5","450,5","1478,9","2431,8","3791,4","4359,8","2555,7","1950,2","2021,3",2293,"1118,3","548,9","23033,2"
PTO. DESEADO,"377,8","7063,5","4971,9",2535,"3537,1","7042,2","5736,2","5438,4","4478,5","5628,7",813,"1325,7",48948
SAN JULIAN,"0,6", , , , , , , , ,"78,6", , ,"79,3"
SUBTOTAL,"411,90","7.514,00","6.450,80","4.966,80","7.328,50","11.402,00","8.291,90","7.388,60","6.499,80","8.000,30","1.931,30","1.874,60","72.060,50"
TIERRA DEL FUEGO,,,,,,,,,,,,,
USHUAIA,"285,8","5455,2",3620,"12230,7","4841,9","10543,8","5352,4","3771,5","4932,5","2054,1","5331,2",4803,63222
SUBTOTAL,"285,80","5.455,20","3.620,00","12.230,70","4.841,90","10.543,80","5.352,40","3.771,50","4.932,50","2.054,10","5.331,20","4.803,00","63.222,00"
TOTAL,"27.437,20","66.332,70","67.520,90","68.317,50","55.310,70","73.907,70","60.037,80","70.282,50","67.267,80","65.467,00","59.095,00","44.671,30","725.648,10"
